{
    "KPlugin": {
        "Authors": [
            {
                "Email": "stephane@mankowski.fr",
                "Name": "Stephane MANKOWSKI",
                "Name[ca@valencia]": "Stephane MANKOWSKI",
                "Name[ca]": "Stephane MANKOWSKI",
                "Name[en_GB]": "Stephane MANKOWSKI",
                "Name[eo]": "Stephane MANKOWSKI",
                "Name[es]": "Stephane MANKOWSKI",
                "Name[fi]": "Stephane MANKOWSKI",
                "Name[fr]": "Stephane MANKOWSKI",
                "Name[gl]": "Stephane MANKOWSKI",
                "Name[ia]": "Stephane MANKOWSKI",
                "Name[it]": "Stephane MANKOWSKI",
                "Name[ka]": "Stephane MANKOWSKI",
                "Name[nl]": "Stephane MANKOWSKI",
                "Name[pl]": "Stephane MANKOWSKI",
                "Name[pt]": "Stephane MANKOWSKI",
                "Name[ru]": "Stephane MANKOWSKI",
                "Name[sk]": "Stephane MANKOWSKI",
                "Name[sl]": "Stephane MANKOWSKI",
                "Name[sv]": "Stephane MANKOWSKI",
                "Name[tr]": "Stephane MANKOWSKI",
                "Name[uk]": "Stephane MANKOWSKI",
                "Name[x-test]": "xxStephane MANKOWSKIxx"
            }
        ],
        "Category": "Plugins",
        "Description": "A Skrooge plugin to import ledger files",
        "Description[ca@valencia]": "Un connector de Skrooge per a importar fitxers de llibre major",
        "Description[ca]": "Un connector de l'Skrooge per a importar fitxers de llibre major",
        "Description[en_GB]": "A Skrooge plugin to import ledger files",
        "Description[eo]": "Skrooge kromaĵo por importi registritajn dosierojn",
        "Description[es]": "Complemento de Skrooge para importar archivos de libro mayor",
        "Description[fr]": "Un module externe de Skrooge pour l'importation de fichiers de « Ledger »",
        "Description[gl]": "Un complemento de Skrooge para importar ficheiros de libro de contabilidade.",
        "Description[it]": "Un'estensione di Skrooge per importare i file dei mastri",
        "Description[ka]": "Skrooge -ის დამატება ledger -ის შემოსატანად",
        "Description[nl]": "Een Skrooge-plugin voor het importeren van kasboekbestanden",
        "Description[pl]": "Wtyczka Skrooge do importu plików ksiąg rachunkowych",
        "Description[pt]": "Um 'plugin' do Skrooge para importar livros de registos",
        "Description[ru]": "Модуль импорта файлов Ledger",
        "Description[sl]": "Vtičnik Skrooge za uvažanje datotek glavne knjige",
        "Description[sv]": "Ett insticksprogram till Skrooge för att importera huvudboksfiler",
        "Description[tr]": "Ledger dosyaları içe aktarmak için Varyemez eklentisi",
        "Description[uk]": "Додаток до Skrooge для імпортування даних з файлів облікових книг",
        "Description[x-test]": "xxA Skrooge plugin to import ledger filesxx",
        "EnabledByDefault": true,
        "Icon": "skrooge",
        "License": "GPL",
        "Name": "Skrooge import ledger plugin",
        "Name[ca@valencia]": "Connector d'importació de llibre major de Skrooge",
        "Name[ca]": "Connector d'importació de llibre major de l'Skrooge",
        "Name[de]": "Skrooge-Import-Kontenbuchmodul",
        "Name[el]": "Πρόσθετο εισαγωγής καθολικού του Skrooge",
        "Name[en_GB]": "Skrooge import ledger plugin",
        "Name[eo]": "Skrooge ledger-importa kromaĵo",
        "Name[es]": "Complemento de importación de libro mayor en Skrooge",
        "Name[et]": "Skrooge pearaamatu importimise plugin",
        "Name[fr]": "Moteur externe de Skrooge pour l'importation depuis « Ledger »",
        "Name[gl]": "Complemento de importación de libros de compatibilidade a Skrooge",
        "Name[it]": "Estensione di Skrooge per l'importazione dei mastri",
        "Name[ka]": "Skrooge -ის დამატება ledger -ის შემოსატანად",
        "Name[nl]": "Plug-in voor importeren van kasboek van Skrooge",
        "Name[pl]": "Wtyczka silnika importu księgi rachunkowej",
        "Name[pt]": "'Plugin' de importação de livros de registos do Skrooge",
        "Name[ru]": "Модуль импорта файлов Ledger",
        "Name[sl]": "Vtičnik Skrooge uvoza glavne knjige",
        "Name[sv]": "Skrooge insticksprogram för huvudboksimport",
        "Name[tr]": "Varyemez ledger İçe Aktarma Eklentisi",
        "Name[uk]": "Додаток імпортування облікових книг Skrooge",
        "Name[x-test]": "xxSkrooge import ledger pluginxx",
        "Name[zh_CN]": "Skrooge 导入账簿插件",
        "Version": "1.0",
        "Website": "https://skrooge.org/"
    },
    "X-Krunner-ID": "Skrooge import ledger plugin"
}
