{
    "KPlugin": {
        "Authors": [
            {
                "Email": "stephane@mankowski.fr",
                "Name": "Stephane MANKOWSKI,miraks",
                "Name[ca@valencia]": "Stephane MANKOWSKI,miraks",
                "Name[ca]": "Stephane MANKOWSKI,miraks",
                "Name[en_GB]": "Stephane MANKOWSKI,miraks",
                "Name[eo]": "Stephane MANKOWSKI,miraks",
                "Name[es]": "Stephane MANKOWSKI,miraks",
                "Name[fi]": "Stephane MANKOWSKI,miraks",
                "Name[fr]": "Stephane MANKOWSKI, miraks",
                "Name[gl]": "Stephane MANKOWSKI, miraks",
                "Name[ia]": "Stephane MANKOWSKI,miraks",
                "Name[it]": "Stephane MANKOWSKI,miraks",
                "Name[ka]": "Stephane MANKOWSKI,miraks",
                "Name[nl]": "Stephane MANKOWSKI,miraks",
                "Name[pl]": "Stephane MANKOWSKI,miraks",
                "Name[pt]": "Stephane MANKOWSKI,miraks",
                "Name[ru]": "Stephane MANKOWSKI,miraks",
                "Name[sl]": "Stephane MANKOWSKI,miraks",
                "Name[sv]": "Stephane MANKOWSKI,miraks",
                "Name[tr]": "Stephane MANKOWSKI, miraks",
                "Name[uk]": "Stephane MANKOWSKI,miraks",
                "Name[x-test]": "xxStephane MANKOWSKI,miraksxx"
            }
        ],
        "Category": "Plugins",
        "Description": "A plugin to manage properties on objects",
        "Description[ca@valencia]": "Un connector per a gestionar les propietats dels objectes",
        "Description[ca]": "Un connector per a gestionar les propietats dels objectes",
        "Description[en_GB]": "A plugin to manage properties on objects",
        "Description[eo]": "Kromaĵo por administri ecojn sur objektoj",
        "Description[es]": "Complemento para la gestión de propiedades de objetos",
        "Description[fi]": "Kohteiden ominaisuuksien hallinnan liitännäinen",
        "Description[fr]": "Un module externe pour la gestion des propriétés des objets",
        "Description[gl]": "Un complemento para xestionar as propiedades dos obxectos.",
        "Description[it]": "Un'estensione per gestire le proprietà degli oggetti",
        "Description[ka]": "ობიექტების თვისებების მართვის დამატება",
        "Description[nl]": "Een plugin voor het beheren van eigenschappen van objecten",
        "Description[pl]": "Wtyczka do obsługi właściwości obiektów",
        "Description[pt]": "Um 'plugin' para gerir as propriedades dos objectos",
        "Description[ru]": "Модуль управления свойствами объектов",
        "Description[sl]": "Vtičnik za upravljanje lastnosti predmetov",
        "Description[sv]": "Ett insticksprogram för att hantera objektegenskaper",
        "Description[tr]": "Nesnelerin özelliklerini yönetmek için bir eklenti",
        "Description[uk]": "Додаток для керування властивостями об’єктів",
        "Description[x-test]": "xxA plugin to manage properties on objectsxx",
        "EnabledByDefault": true,
        "Icon": "quickopen",
        "License": "GPL",
        "Name": "Properties plugin",
        "Name[bs]": "Dodatak za svojstva",
        "Name[ca@valencia]": "Connector de propietats",
        "Name[ca]": "Connector de propietats",
        "Name[cs]": "Modul vlastností",
        "Name[da]": "Egenskabs-plugin",
        "Name[de]": "Eigenschaften-Modul",
        "Name[el]": "Properties plugin",
        "Name[en_GB]": "Properties plugin",
        "Name[eo]": "Propraĵoj kromaĵo",
        "Name[es]": "Complemento de propiedades",
        "Name[et]": "Omaduste plugin",
        "Name[fi]": "Ominaisuusliitännäinen",
        "Name[fr]": "Moteur externe pour la gestion des propriétés",
        "Name[gl]": "Complemento de propiedades",
        "Name[hu]": "Tulajdonságok bővítmény",
        "Name[ia]": "Plugin de Proprietates",
        "Name[it]": "Estensione per proprietà",
        "Name[ka]": "თვისებების მოდული",
        "Name[lt]": "Savybių papildinys",
        "Name[nb]": "Egenskapsmodul",
        "Name[nds]": "Egenschappenmoduul",
        "Name[nl]": "Plugin voor eigenschappen",
        "Name[pl]": "Wtyczka właściwości",
        "Name[pt]": "'Plugin' de propriedades",
        "Name[pt_BR]": "Plugin de propriedades",
        "Name[ru]": "Модуль свойств",
        "Name[sk]": "Plugin vlastnosti",
        "Name[sl]": "Vtičnik lastnosti",
        "Name[sv]": "Egenskapsinsticksprogram",
        "Name[tr]": "Özellikler Eklentisi",
        "Name[uk]": "Додаток властивостей",
        "Name[x-test]": "xxProperties pluginxx",
        "Name[zh_TW]": "屬性外掛程式",
        "ServiceTypes": [
            "SKG GUI/Plugin"
        ],
        "Version": "1.0",
        "Website": "https://skrooge.org/"
    },
    "X-Krunner-ID": "Properties plugin"
}
