{
    "KPlugin": {
        "Authors": [
            {
                "Email": "stephane@mankowski.fr",
                "Name": "Stephane MANKOWSKI,miraks",
                "Name[ca@valencia]": "Stephane MANKOWSKI,miraks",
                "Name[ca]": "Stephane MANKOWSKI,miraks",
                "Name[en_GB]": "Stephane MANKOWSKI,miraks",
                "Name[eo]": "Stephane MANKOWSKI,miraks",
                "Name[es]": "Stephane MANKOWSKI,miraks",
                "Name[fi]": "Stephane MANKOWSKI,miraks",
                "Name[fr]": "Stephane MANKOWSKI, miraks",
                "Name[gl]": "Stephane MANKOWSKI, miraks",
                "Name[ia]": "Stephane MANKOWSKI,miraks",
                "Name[it]": "Stephane MANKOWSKI,miraks",
                "Name[ka]": "Stephane MANKOWSKI,miraks",
                "Name[nl]": "Stephane MANKOWSKI,miraks",
                "Name[pl]": "Stephane MANKOWSKI,miraks",
                "Name[pt]": "Stephane MANKOWSKI,miraks",
                "Name[ru]": "Stephane MANKOWSKI,miraks",
                "Name[sl]": "Stephane MANKOWSKI,miraks",
                "Name[sv]": "Stephane MANKOWSKI,miraks",
                "Name[tr]": "Stephane MANKOWSKI, miraks",
                "Name[uk]": "Stephane MANKOWSKI,miraks",
                "Name[x-test]": "xxStephane MANKOWSKI,miraksxx"
            }
        ],
        "Category": "Plugins",
        "Description": "A plugin for undo and redo transactions",
        "Description[ca@valencia]": "Un connector per a desfer i refer operacions",
        "Description[ca]": "Un connector per a desfer i refer operacions",
        "Description[en_GB]": "A plugin for undo and redo transactions",
        "Description[eo]": "Kromaĵo por malfar- kaj refar-transakcioj",
        "Description[es]": "Complemento para deshacer y rehacer transacciones",
        "Description[fr]": "Un module externe pour les opérations d'annulation et de réitération d'actions",
        "Description[gl]": "Un complemento para desfacer e refacer transaccións.",
        "Description[it]": "Un'estensione per le transazioni di annullamento e rifacimento",
        "Description[ka]": "ტრანზაქციის გაუქმება/გამეორების დამატება",
        "Description[nl]": "Een plugin voor ongedaan maken en opnieuw doen van transacties",
        "Description[pl]": "Wtyczka do transakcji cofania i ponawiania",
        "Description[sl]": "Vtičnik za razveljavljanje in uveljavljanje transakcij",
        "Description[sv]": "Ett insticksprogram för att ångra och göra om transaktioner",
        "Description[tr]": "İşlemleri geri almak ve tekrarlamak için bir eklenti",
        "Description[uk]": "Додаток для виконання дій зі скасування-поновлення",
        "Description[x-test]": "xxA plugin for undo and redo transactionsxx",
        "EnabledByDefault": true,
        "Icon": "quickopen",
        "License": "GPL",
        "Name": "Undo redo plugin",
        "Name[bs]": "Poništi ponovi dodatak",
        "Name[ca@valencia]": "Connector de desfer i refer",
        "Name[ca]": "Connector de desfer i refer",
        "Name[cs]": "Modul pro zpět/znovu",
        "Name[da]": "Fortryd-/gendan-plugin",
        "Name[de]": "Modul für Rückgängig/Wiederherstellen",
        "Name[el]": "Undo redo plugin",
        "Name[en_GB]": "Undo redo plugin",
        "Name[eo]": "Malfar-refara kromaĵo",
        "Name[es]": "Complemento de deshacer y rehacer",
        "Name[et]": "Tagasivõtmise ja uuestitegemise plugin",
        "Name[fi]": "Kumoamis- ja uudelleentekemisliitännäinen",
        "Name[fr]": "Moteur externe pour annuler et refaire",
        "Name[gl]": "Complemento de desfacer e refacer",
        "Name[hu]": "Visszavonás, újra végrehajtás bővítmény",
        "Name[ia]": "Plugin de Annulla e Reface",
        "Name[it]": "Estensione annulla/rifai",
        "Name[ka]": "გაუქმება/გამეორების მოდული",
        "Name[lt]": "Atšaukti, pakartoti papildinys",
        "Name[nb]": "Angre/gjør om-modul",
        "Name[nds]": "Torüchnehmen- un Wedderhalenmoduul",
        "Name[nl]": "Plugin voor ongedaan maken/opnieuw doen",
        "Name[pl]": "Wtyczka ponów/cofnij",
        "Name[pt]": "'Plugin' para desfazer/refazer",
        "Name[pt_BR]": "Plugin de desfazer e refazer",
        "Name[ru]": "Модуль отмены и повтора действий",
        "Name[sk]": "Plugin Vrátiť naspäť",
        "Name[sl]": "Vtičnik uveljavljanja razveljavljanja",
        "Name[sv]": "Ångrings- och omgörningsinsticksprogram",
        "Name[tr]": "Geri alma tekrarlama Eklentisi",
        "Name[uk]": "Додаток скасування/поновлення дій",
        "Name[x-test]": "xxUndo redo pluginxx",
        "Name[zh_TW]": "復原與重做外掛程式",
        "ServiceTypes": [
            "SKG GUI/Plugin"
        ],
        "Version": "1.0",
        "Website": "https://skrooge.org/"
    },
    "X-Krunner-ID": "Undo redo plugin"
}
