"date";"account";"number";"mode";"payee";"comment";"quantity";"unit";"amount";"sign";"category";"status";"bookmarked";"id";"idtransaction";"idgroup"
"0000-00-00";"COMPTE";"0";"";"Opening Balance";"";"0";"Unit for import";"0";"";"";"Y";"N";"1";"1";"0"
"2011-03-09";"COMPTE";"0";"";"TIER";"";"100";"Unit for import";"100";"+";"Alimentation";"N";"N";"2";"2";"0"
"2011-03-09";"COMPTE";"0";"";"TIER";"";"50";"Unit for import";"50";"+";"Automobile";"N";"N";"3";"2";"0"
