{
    "KPlugin": {
        "Authors": [
            {
                "Email": "stephane@mankowski.fr",
                "Name": "Stephane MANKOWSKI,miraks",
                "Name[ca@valencia]": "Stephane MANKOWSKI,miraks",
                "Name[ca]": "Stephane MANKOWSKI,miraks",
                "Name[en_GB]": "Stephane MANKOWSKI,miraks",
                "Name[eo]": "Stephane MANKOWSKI,miraks",
                "Name[es]": "Stephane MANKOWSKI,miraks",
                "Name[fi]": "Stephane MANKOWSKI,miraks",
                "Name[fr]": "Stephane MANKOWSKI, miraks",
                "Name[gl]": "Stephane MANKOWSKI, miraks",
                "Name[ia]": "Stephane MANKOWSKI,miraks",
                "Name[it]": "Stephane MANKOWSKI,miraks",
                "Name[ka]": "Stephane MANKOWSKI,miraks",
                "Name[nl]": "Stephane MANKOWSKI,miraks",
                "Name[pl]": "Stephane MANKOWSKI,miraks",
                "Name[pt]": "Stephane MANKOWSKI,miraks",
                "Name[ru]": "Stephane MANKOWSKI,miraks",
                "Name[sl]": "Stephane MANKOWSKI,miraks",
                "Name[sv]": "Stephane MANKOWSKI,miraks",
                "Name[tr]": "Stephane MANKOWSKI, miraks",
                "Name[uk]": "Stephane MANKOWSKI,miraks",
                "Name[x-test]": "xxStephane MANKOWSKI,miraksxx"
            }
        ],
        "Category": "Plugins",
        "Description": "An import backend for Skrooge using weboob for coming operation. This plugin can be used for card with deferred debit.\n You must install weboob and configure correctly the boobank module before using this backend.\n\n Parameter:\n The list of accounts to import separated by '|'. If you don't pass parameter then all accounts will be imported.\n Example: 123@ca|456@bp",
        "Description[ca@valencia]": "Un dorsal d'importació per a Skrooge utilitzant Weboob per a les operacions entrants. Este connector es pot utilitzar per a targetes amb càrrec diferit.\n  Cal instal·lar «weboob» i configurar correctament el mòdul «boobank» abans d'utilitzar este dorsal.\n\n Paràmetre:\n La llista de comptes que s'importarà, separats per «|». Si no es passa el paràmetre, s'importaran tots els comptes.\n Exemple: 123@ca|456@bp",
        "Description[ca]": "Un dorsal d'importació per a l'Skrooge usant Weboob per a les operacions entrants. Aquest connector es pot usar per a targetes amb càrrec diferit.\n  Cal instal·lar el «weboob» i configurar correctament el mòdul «boobank» abans d'usar aquest dorsal.\n\n Paràmetre:\n La llista de comptes a importar, separats per «|». Si no es passa el paràmetre, s'importaran tots els comptes.\n Exemple: 123@ca|456@bp",
        "Description[en_GB]": "An import backend for Skrooge using weboob for coming operation. This plugin can be used for card with deferred debit.\n You must install weboob and configure correctly the boobank module before using this backend.\n\n Parameter:\n The list of accounts to import separated by '|'. If you do not pass parameter then all accounts will be imported.\n Example: 123@ca|456@bp",
        "Description[es]": "Motor de importación para Skrooge que usa la futura implementación de weboob. Este complemento se puede usar para tarjetas con débito aplazado.\nDebe instalar weboob y configurar correctamente el módulo «boobank» antes de usar este motor.\n\nParámetro:\nLa lista de cuentas que se van a importar separadas por «|». Si no usa parámetros, se importarán todas las cuentas.\nEjemplo: 123@ca|456@bp",
        "Description[fr]": "Un moteur d'importation pour Skrooge utilisant Weboob pour les opérations à venir. Ce module externe peut être utilisé pour les cartes à débit différé.\n Vous devez installer Weboob et configurer correctement le module « boobank » avant d'utiliser ce moteur.\n\n Paramètre :\n La liste des comptes à importer séparés par « | ». Si vous ne passez aucun paramètre, alors, tous les comptes seront importés.\n Exemple : 123@ca|456@bp",
        "Description[gl]": "Un motor de importación para Skrooge que usa weboob para operacións futuras. O complemento pode usarse para tarxetas con débito en diferido.\nDebe instalar weboob e configurar correctamente o módulo boobank para poder usar o motor.\n\n Parámetro:\n A lista de contas para importar separadas por «|». Se non pasa o parámetro, impórtanse todas as contas.\n Por  exemplo: «123@ca|456@bp».",
        "Description[it]": "Un motore di importazione per Skrooge che utilizza weboob per le operazioni in arrivo. Questa estensione può essere usata per le carte con addebito differito.\n Prima di utilizzare questo motore devi installare weboob e configurare il modulo boobank.\n\n Parametro:\n l'elenco dei conti da importare separati da «|». Se non passi il parametro verranno importati tutti i conti.\n Esempio: 123@ca|456@bp",
        "Description[nl]": "Een backend voor importeren voor Skrooge met gebruik van weboob voor aankomende bewerkingen. Deze plug-in kan gebruikt worden voor verschoven debet.\n U moet weboob installeren en de boobank-module juist configureren alvorens deze backend te gebruiken.\n\n Parameter:\n De lijst met te importeren accounts gescheiden door '|'. Als u geen parameter meegeeft dan worden alle accounts geïmporteerd.\n Voorbeeld: 123@ca|456@bp",
        "Description[sl]": "Zaledje uvoza za Skrooge, ki uporablja weboob za prihodnjo operacijo. Ta vtičnik se lahko uporablja za kartico z odloženo obremenitvijo.\n Pred uporabo tega zaledja morate namestiti weboob in pravilno konfigurirati modul boobank.\n\n Parameter:\n Seznam računov za uvoz, ločenih z '|'. Če parametra ne posredujete, bodo uvoženi vsi računi.\n Primer: 123@ca|456@bp",
        "Description[sv]": "Ett importgränssnitt för Skrooge som använder weboob för framtida transaktioner. Insticksprogrammet kan användas för kreditkort med fakturering.\nDu måste installera weboob och ställa in modulen boobank korrekt innan gränssnittet används.\n\nParameter:\nListan med konton som ska importeras åtskilda av '|'. Om du inte skickar med parametern importeras alla konton.\nExempel: 123@ca|456@bp",
        "Description[tr]": "Geliş işlemi için weboob kullanan, Varyemez için önemli bir arka uç. Bu eklenti, ertelenmiş borç içeren kartlar için kullanılabilir.\nBu arka ucu kullanmadan önce weboob’u kurmalı ve boobank modülünü düzgünce yapılandırmalısınız.\n\nParametre:\nİçe aktarılacak hesaplar listesi “|” ile ayrılır. Parametre geçirmezseniz tüm hesaplar içe aktarılır.\n Örnek: 123@ca|456@bp",
        "Description[uk]": "Модуль імпортування даних до Skrooge з використанням weboob для майбутніх операцій. Цим додатком можна скористатися для карток із відкладеними видатками.\n Вам слід встановити weboob і налаштувати належним чином модуль boobank, перш ніж користуватися цим модулем обробки.\n\n Параметр:\n список рахунків, дані яких слід імпортувати з відокремленням записів символом «|». Якщо ви не передасте параметр, буде імпортовано дані усіх рахунків.\n Приклад: 123@ca|456@bp",
        "Description[x-test]": "xxAn import backend for Skrooge using weboob for coming operation. This plugin can be used for card with deferred debit.\n You must install weboob and configure correctly the boobank module before using this backend.\n\n Parameter:\n The list of accounts to import separated by '|'. If you don't pass parameter then all accounts will be imported.\n Example: 123@ca|456@bpxx",
        "EnabledByDefault": true,
        "Icon": "skrooge",
        "License": "GPL",
        "Name": "Weboob coming backend",
        "Name[ca@valencia]": "Dorsal d'entrades de Weboob",
        "Name[ca]": "Dorsal d'entrades del Weboob",
        "Name[cs]": "Podpůrná vrstva Weboob",
        "Name[en_GB]": "Weboob coming backend",
        "Name[es]": "Próximo motor Weboob",
        "Name[et]": "Weboobi eesootava tehingu taustaprogramm",
        "Name[fr]": "Moteur pour Weboob à venir",
        "Name[gl]": "Infraestrutura de futuro de weboob",
        "Name[it]": "Motore Weboob in arrivo",
        "Name[nl]": "Weboob inkomende backend",
        "Name[ru]": "Модуль Weboob (будущие операции)",
        "Name[sl]": "Prihajajoče zaledje Weboob",
        "Name[sv]": "Weboob coming-gränssnitt",
        "Name[tr]": "Weboob arka ucu",
        "Name[uk]": "Модуль Weboob для майбутніх операцій",
        "Name[x-test]": "xxWeboob coming backendxx",
        "Version": "1.0",
        "Website": "https://skrooge.org/"
    },
    "X-SKROOGE-csvcolumns": "date2|date1|mode|comment|payee|amount",
    "X-SKROOGE-getaccountbalance": "[^;]*;[^;]*;([^;]*)",
    "X-SKROOGE-getaccountid": "([^;]*);",
    "X-SKROOGE-getaccountname": "[^;]*;([^;]*)",
    "X-SKROOGE-getaccounts": "PYTHONIOENCODING=utf_8 boobank ls -q -f csv -s id,label,balance | grep -E \"id;label;balance|%parameter1\"",
    "X-SKROOGE-getoperations": "PYTHONIOENCODING=utf_8 boobank -q -f csv coming \"%1\" -s date,rdate,type,raw,label,amount --condition \"rdate>%4 OR date>%4 OR rdate>%4 00:00:00 OR date>%4 00:00:00\" -n 99999 %parameter2 2>/dev/null",
    "X-SKROOGE-ossupported": "linux,freebsd,darwin"
}
