{
    "KPlugin": {
        "Authors": [
            {
                "Email": "stephane@mankowski.fr",
                "Name": "Stephane MANKOWSKI,miraks",
                "Name[ca@valencia]": "Stephane MANKOWSKI,miraks",
                "Name[ca]": "Stephane MANKOWSKI,miraks",
                "Name[en_GB]": "Stephane MANKOWSKI,miraks",
                "Name[eo]": "Stephane MANKOWSKI,miraks",
                "Name[es]": "Stephane MANKOWSKI,miraks",
                "Name[fi]": "Stephane MANKOWSKI,miraks",
                "Name[fr]": "Stephane MANKOWSKI, miraks",
                "Name[gl]": "Stephane MANKOWSKI, miraks",
                "Name[ia]": "Stephane MANKOWSKI,miraks",
                "Name[it]": "Stephane MANKOWSKI,miraks",
                "Name[ka]": "Stephane MANKOWSKI,miraks",
                "Name[nl]": "Stephane MANKOWSKI,miraks",
                "Name[pl]": "Stephane MANKOWSKI,miraks",
                "Name[pt]": "Stephane MANKOWSKI,miraks",
                "Name[ru]": "Stephane MANKOWSKI,miraks",
                "Name[sl]": "Stephane MANKOWSKI,miraks",
                "Name[sv]": "Stephane MANKOWSKI,miraks",
                "Name[tr]": "Stephane MANKOWSKI, miraks",
                "Name[uk]": "Stephane MANKOWSKI,miraks",
                "Name[x-test]": "xxStephane MANKOWSKI,miraksxx"
            }
        ],
        "Category": "Plugins",
        "Description": "An import backend for Skrooge using woob for coming operation. This plugin can be used for card with deferred debit.\n You must install woob and configure correctly the bank module before using this backend.\n\n Parameter:\n The list of accounts to import separated by '|'. If you don't pass parameter then all accounts will be imported.\n Example: 123@ca|456@bp",
        "Description[ca@valencia]": "Un dorsal d'importació per a Skrooge utilitzant Woob per a les operacions entrants. Este connector es pot utilitzar per a targetes amb càrrec diferit.\n Cal instal·lar «woob» i configurar correctament el mòdul del banc abans d'utilitzar este dorsal.\n\n Paràmetre:\n La llista de comptes que s'importarà, separats per «|». Si no es passa el paràmetre, s'importaran tots els comptes.\n Exemple: 123@ca|456@bp",
        "Description[ca]": "Un dorsal d'importació per a l'Skrooge usant Woob per a les operacions entrants. Aquest connector es pot usar per a targetes amb càrrec diferit.\n Cal instal·lar el «woob» i configurar correctament el mòdul del banc abans d'usar aquest dorsal.\n\n Paràmetre:\n La llista de comptes a importar, separats per «|». Si no es passa el paràmetre, s'importaran tots els comptes.\n Exemple: 123@ca|456@bp",
        "Description[en_GB]": "An import backend for Skrooge using woob for coming operation. This plugin can be used for card with deferred debit.\n You must install woob and configure correctly the bank module before using this backend.\n\n Parameter:\n The list of accounts to import separated by '|'. If you do not pass parameter then all accounts will be imported.\n Example: 123@ca|456@bp",
        "Description[es]": "Motor de importación para Skrooge que usa la futura implementación de woob. Este complemento se puede usar para tarjetas con débito aplazado.\nDebe instalar woob y configurar correctamente el módulo de banca antes de usar este motor.\n\nParámetro:\nLa lista de cuentas que se van a importar separadas por «|». Si no pasa parámetros, se importarán todas las cuentas.\nEjemplo: 123@ca|456@bp",
        "Description[fr]": "Un moteur d'importation pour Skrooge utilisant Woob pour les opérations à venir. Ce module externe peut être utilisé pour les cartes à débit différé.\n Vous devez installer Woob et configurer correctement le module bancaire avant d'utiliser ce moteur.\n\n Paramètre :\n La liste des comptes à importer séparés par « | ». Si vous ne passez aucun paramètre, alors, tous les comptes seront importés.\n Exemple : 123@ca|456@bp",
        "Description[gl]": "Un motor de importación para Skrooge que usa woob para operacións futuras. O complemento pode usarse para tarxetas con débito en diferido.\nDebe instalar woob e configurar correctamente o módulo bank para poder usar o motor.\n\n Parámetro:\n A lista de contas para importar separadas por «|». Se non pasa o parámetro, impórtanse todas as contas.\n Por  exemplo: «123@ca|456@bp».",
        "Description[it]": "Un motore di importazione per Skrooge che utilizza woob per le operazioni in arrivo. Questa estensione può essere usata per le carte con addebito differito.\n Prima di utilizzare questo motore devi installare woob e configurare il modulo banca.\n\n Parametro:\n l'elenco dei conti da importare separati da «|». Se non passi il parametro verranno importati tutti i conti.\n Esempio: 123@ca|456@bp",
        "Description[nl]": "Een backend voor importeren voor Skrooge met gebruik van woob voor aankomende bewerkingen. Deze plug-in kan gebruikt worden voor verschoven debet.\n U moet woob installeren en de bank-module juist configureren alvorens deze backend te gebruiken.\n\n Parameter:\n De lijst met te importeren accounts gescheiden door '|'. Als u geen parameter meegeeft dan worden alle accounts geïmporteerd.\n Voorbeeld: 123@ca|456@bp",
        "Description[sl]": "Zaledje za uvoz za Skrooge, ki uporablja woob za prihodnjo operacijo. Ta vtičnik se lahko uporablja za kartico z odloženo obremenitvijo.\n Pred uporabo tega ozadja morate namestiti woob in pravilno konfigurirati bančni modul.\n\n Parameter:\n Seznam računov za uvoz, ločenih z '|'. Če parametra ne posredujete, bodo uvoženi vsi računi.\n Primer: 123@ca|456@bp",
        "Description[sv]": "Ett importgränssnitt för Skrooge som använder woob för framtida operationer. Insticksprogrammet kan användas för kreditkort med fakturering.\nDu måste installera woob och ställa in bankmodulen korrekt innan gränssnittet används.\n\nParameter:\nListan med konton som ska importeras åtskilda av '|'. Om du inte skickar med parametern importeras alla konton.\nExempel: 123@ca|456@bp",
        "Description[tr]": "Geliş işlemi için weboob kullanan, Varyemez için önemli bir arka uç. Bu eklenti, ertelenmiş borç içeren kartlar için kullanılabilir.\nBu arka ucu kullanmadan önce woob’u kurmalı ve banka modülünü düzgünce yapılandırmalısınız.\n\nParametre:\n İçe aktarılacak hesaplar listesi “|” ile ayrılır. Parametre geçirmezseniz tüm hesaplar içe aktarılır.\n Örnek: 123@ca|456@bp",
        "Description[uk]": "Модуль імпортування даних до Skrooge з використанням woob для майбутніх операцій. Цим додатком можна скористатися для карток із відкладеними видатками.\n Вам слід встановити woob і налаштувати належним чином модуль bank, перш ніж користуватися цим модулем обробки.\n\n Параметр:\n список рахунків, дані яких слід імпортувати з відокремленням записів символом «|». Якщо ви не передасте параметр, буде імпортовано дані усіх рахунків.\n Приклад: 123@ca|456@bp",
        "Description[x-test]": "xxAn import backend for Skrooge using woob for coming operation. This plugin can be used for card with deferred debit.\n You must install woob and configure correctly the bank module before using this backend.\n\n Parameter:\n The list of accounts to import separated by '|'. If you don't pass parameter then all accounts will be imported.\n Example: 123@ca|456@bpxx",
        "EnabledByDefault": true,
        "Icon": "skrooge",
        "License": "GPL",
        "Name": "Woob coming backend",
        "Name[ca@valencia]": "Dorsal d'entrades de Woob",
        "Name[ca]": "Dorsal d'entrades del Woob",
        "Name[en_GB]": "Woob coming backend",
        "Name[es]": "Próximo motor Woob",
        "Name[fr]": "Moteur pour Woob à venir",
        "Name[gl]": "Motor de woob futuro",
        "Name[it]": "Motore Woob in arrivo",
        "Name[nl]": "Woob aankomende backend",
        "Name[ru]": "Модуль Woob (будущие операции)",
        "Name[sl]": "Prihajajoče zaledje Woob",
        "Name[sv]": "Woob coming-gränssnitt",
        "Name[tr]": "Woob geliş arka ucu",
        "Name[uk]": "Модуль Woob для майбутніх операцій",
        "Name[x-test]": "xxWoob coming backendxx",
        "Version": "1.0",
        "Website": "https://skrooge.org/"
    },
    "X-SKROOGE-csvcolumns": "date2|date1|mode|comment|payee|amount",
    "X-SKROOGE-getaccountbalance": "[^;]*;[^;]*;([^;]*)",
    "X-SKROOGE-getaccountid": "([^;]*);",
    "X-SKROOGE-getaccountname": "[^;]*;([^;]*)",
    "X-SKROOGE-getaccounts": "skrooge-woob.py  --woob_option \"%parameter3\" --filter \"%parameter1\" --output \"%4\"",
    "X-SKROOGE-getoperations": "PYTHONIOENCODING=utf_8 woob bank -q -f csv coming \"%1\" -s date,rdate,type,raw,label,amount --condition \"rdate>%4 OR date>%4 OR rdate>%4 00:00:00 OR date>%4 00:00:00\" -n 99999 %parameter2 2>/dev/null",
    "X-SKROOGE-ossupported": "linux,freebsd,darwin"
}
