{
    "KPlugin": {
        "Authors": [
            {
                "Email": "stephane@mankowski.fr",
                "Name": "Stephane MANKOWSKI,miraks",
                "Name[ca@valencia]": "Stephane MANKOWSKI,miraks",
                "Name[ca]": "Stephane MANKOWSKI,miraks",
                "Name[en_GB]": "Stephane MANKOWSKI,miraks",
                "Name[eo]": "Stephane MANKOWSKI,miraks",
                "Name[es]": "Stephane MANKOWSKI,miraks",
                "Name[fi]": "Stephane MANKOWSKI,miraks",
                "Name[fr]": "Stephane MANKOWSKI, miraks",
                "Name[gl]": "Stephane MANKOWSKI, miraks",
                "Name[ia]": "Stephane MANKOWSKI,miraks",
                "Name[it]": "Stephane MANKOWSKI,miraks",
                "Name[ka]": "Stephane MANKOWSKI,miraks",
                "Name[nl]": "Stephane MANKOWSKI,miraks",
                "Name[pl]": "Stephane MANKOWSKI,miraks",
                "Name[pt]": "Stephane MANKOWSKI,miraks",
                "Name[ru]": "Stephane MANKOWSKI,miraks",
                "Name[sl]": "Stephane MANKOWSKI,miraks",
                "Name[sv]": "Stephane MANKOWSKI,miraks",
                "Name[tr]": "Stephane MANKOWSKI, miraks",
                "Name[uk]": "Stephane MANKOWSKI,miraks",
                "Name[x-test]": "xxStephane MANKOWSKI,miraksxx"
            }
        ],
        "Category": "Plugins",
        "Description": "A skrooge plugin to follow payee",
        "Description[ca@valencia]": "Un connector de Skrooge per a fer el seguiment dels beneficiaris",
        "Description[ca]": "Un connector de l'Skrooge per a fer el seguiment dels beneficiaris",
        "Description[cs]": "Modul sledování plátců pro Skrooge",
        "Description[en_GB]": "A skrooge plugin to follow payee",
        "Description[eo]": "Skrooge-aldonaĵo por sekvi pagaton",
        "Description[es]": "Complemento de Skrooge para hacer un seguimiento de beneficiarios",
        "Description[fi]": "Skroogen maksunsaajien seurantaliitännäinen",
        "Description[fr]": "Un module externe de suivi des bénéficiaires pour SKrooge",
        "Description[gl]": "Un complemento de Skrooge para seguir os beneficiarios.",
        "Description[it]": "Un'estensione di Skrooge per seguire il beneficiario",
        "Description[ka]": "Skrooge-ის დამატება გადამხდელის სადევნად",
        "Description[nl]": "Een plugin van skrooge voor het volgen van begunstigden",
        "Description[pl]": "Wtyczka Skrooge do obsługi odbiorców",
        "Description[pt]": "Um 'plugin' do Skrooge para acompanhamento dos beneficiários",
        "Description[ru]": "Модуль получателей",
        "Description[sl]": "Vtičnik Skrooge za spremljanje prejemnika",
        "Description[sv]": "Ett insticksprogram till Skrooge som följer betalare",
        "Description[tr]": "Alacaklıları takip etmek için bir Varyemez eklentisi",
        "Description[uk]": "Додаток до skrooge для стеження за отримувачами",
        "Description[x-test]": "xxA skrooge plugin to follow payeexx",
        "EnabledByDefault": true,
        "Icon": "skrooge",
        "License": "GPL",
        "Name": "Skrooge payee plugin",
        "Name[bs]": "Skrooge primaočev dodatak",
        "Name[ca@valencia]": "Connector de beneficiaris de Skrooge",
        "Name[ca]": "Connector de beneficiaris de l'Skrooge",
        "Name[cs]": "Modul plátců pro Skrooge",
        "Name[da]": "Skrooge betalingsmodtager-plugin",
        "Name[de]": "Skrooge-Modul für Zahlungsempfänger",
        "Name[el]": "Skrooge payee plugin",
        "Name[en_GB]": "Skrooge payee plugin",
        "Name[eo]": "Skrooge paganta kromaĵo",
        "Name[es]": "Complemento de beneficiario de Skrooge",
        "Name[et]": "Skrooge maksesaajaplugin",
        "Name[fi]": "Skroogen maksunsaajaliitännäinen",
        "Name[fr]": "Moteur externe Skrooge pour la gestion des bénéficiaires",
        "Name[gl]": "Complemento de beneficiarios de Skrooge",
        "Name[hu]": "Skrooge fizető bővítmény",
        "Name[it]": "Estensione beneficiari di Skrooge",
        "Name[ka]": "Skrooge გადამხდელის დამატება",
        "Name[lt]": "Skrooge gavėjo papildinys",
        "Name[nb]": "Skrooge modul for betalingsmottaker",
        "Name[nl]": "Plugin voor Skrooge-begunstigde",
        "Name[pl]": "Wtyczka odbiorców dla Skrooge",
        "Name[pt]": "'Plugin' de beneficiários do Skrooge",
        "Name[pt_BR]": "Plugin de beneficiário do Skrooge",
        "Name[ru]": "Модуль получателей",
        "Name[sk]": "Plugin veriteľov Skrooge",
        "Name[sl]": "Vtičnik Skrooge prejemnika",
        "Name[sv]": "Skrooge insticksprogram för betalare",
        "Name[tr]": "Varyemez Alacaklı Eklentisi",
        "Name[uk]": "Додаток отримувачів Skrooge",
        "Name[x-test]": "xxSkrooge payee pluginxx",
        "Name[zh_TW]": "Skrooge 收款人外掛程式",
        "ServiceTypes": [
            "SKG GUI/Plugin"
        ],
        "Version": "1.0",
        "Website": "https://skrooge.org/"
    },
    "X-Krunner-ID": "Skrooge payee plugin"
}
