{
    "KPlugin": {
        "Authors": [
            {
                "Email": "stephane@mankowski.fr",
                "Name": "Stephane MANKOWSKI,miraks",
                "Name[ca@valencia]": "Stephane MANKOWSKI,miraks",
                "Name[ca]": "Stephane MANKOWSKI,miraks",
                "Name[en_GB]": "Stephane MANKOWSKI,miraks",
                "Name[eo]": "Stephane MANKOWSKI,miraks",
                "Name[es]": "Stephane MANKOWSKI,miraks",
                "Name[fi]": "Stephane MANKOWSKI,miraks",
                "Name[fr]": "Stephane MANKOWSKI, miraks",
                "Name[gl]": "Stephane MANKOWSKI, miraks",
                "Name[ia]": "Stephane MANKOWSKI,miraks",
                "Name[it]": "Stephane MANKOWSKI,miraks",
                "Name[ka]": "Stephane MANKOWSKI,miraks",
                "Name[nl]": "Stephane MANKOWSKI,miraks",
                "Name[pl]": "Stephane MANKOWSKI,miraks",
                "Name[pt]": "Stephane MANKOWSKI,miraks",
                "Name[ru]": "Stephane MANKOWSKI,miraks",
                "Name[sl]": "Stephane MANKOWSKI,miraks",
                "Name[sv]": "Stephane MANKOWSKI,miraks",
                "Name[tr]": "Stephane MANKOWSKI, miraks",
                "Name[uk]": "Stephane MANKOWSKI,miraks",
                "Name[x-test]": "xxStephane MANKOWSKI,miraksxx"
            }
        ],
        "Category": "Plugins",
        "Description": "A Skrooge plugin to import IIF files",
        "Description[ca@valencia]": "Un connector de Skrooge per a importar fitxers IIF",
        "Description[ca]": "Un connector de l'Skrooge per a importar fitxers IIF",
        "Description[cs]": "Modul Skrooge pro import souborů IIF",
        "Description[en_GB]": "A Skrooge plugin to import IIF files",
        "Description[eo]": "Skrooge kromaĵo por importi IIF-dosierojn",
        "Description[es]": "Complemento de Skrooge para importar archivos IIF",
        "Description[fi]": "Skroogen IIF-tiedostojen tuontiliitännäinen",
        "Description[fr]": "Un module externe de Skrooge pour l'importation de fichiers « IIF »",
        "Description[gl]": "Un complemento de Skrooge para importar ficheiros IIF.",
        "Description[it]": "Un'estensione di Skrooge per importare i file IIF",
        "Description[ka]": "Skrooge -ის დამატება IIF -ის შემოსატანად",
        "Description[nl]": "Een Skrooge-plugin voor het importeren van IIF-bestanden",
        "Description[pl]": "Wtyczka Skrooge do importu plików IIF",
        "Description[pt]": "Um 'plugin' do Skrooge para importar ficheiros IIF",
        "Description[ru]": "Модуль импорта файлов IIF",
        "Description[sl]": "Vtičnik Skrooge za uvažanje datotek IIF",
        "Description[sv]": "Ett insticksprogram till Skrooge för att importera IIF-filer",
        "Description[tr]": "IIF dosyaları içe aktarmak için Varyemez eklentisi",
        "Description[uk]": "Додаток до Skrooge для імпортування даних з файлів IIF",
        "Description[x-test]": "xxA Skrooge plugin to import IIF filesxx",
        "EnabledByDefault": true,
        "Icon": "skrooge",
        "License": "GPL",
        "Name": "Skrooge import IIF plugin",
        "Name[bs]": "Skrooge dodatak za IIF uvoz",
        "Name[ca@valencia]": "Connector d'importació d'IIF de Skrooge",
        "Name[ca]": "Connector d'importació d'IIF de l'Skrooge",
        "Name[cs]": "Modul Skrooge pro import IIF",
        "Name[da]": "Plugin til import af IIF til Skrooge",
        "Name[de]": "Skrooge-IIF-Importmodul",
        "Name[el]": "Πρόσθετο εισαγωγής IIF του Skrooge",
        "Name[en_GB]": "Skrooge import IIF plugin",
        "Name[eo]": "Skrooge import IIF-kromaĵo",
        "Name[es]": "Complemento de importación IIF en Skrooge",
        "Name[et]": "Skrooge IIF impordi plugin",
        "Name[fi]": "Skroogen IIF-tuontiliitännäinen",
        "Name[fr]": "Moteur externe de Skrooge pour l'importation « IIF »",
        "Name[gl]": "Complemento de importación de IIF a Skrooge",
        "Name[it]": "Estensione di Skrooge per l'importazione IIF",
        "Name[ka]": "Skrooge -ის დამატება IIF -ის შემოსატანად",
        "Name[nl]": "Plugin van Skrooge voor importeren van IIF",
        "Name[pl]": "Wtyczka importu IIF dla Skrooge",
        "Name[pt]": "'Plugin' de importação de IIF do Skrooge",
        "Name[pt_BR]": "Plugin de importação de IIF para o Skrooge",
        "Name[ru]": "Модуль импорта файлов IIF",
        "Name[sk]": "Skrooge plugin IIF import",
        "Name[sl]": "Vtičnik Skrooge uvoza IIF",
        "Name[sv]": "Skrooge IIF-importinsticksprogram",
        "Name[tr]": "Varyemez IIF İçe Aktarma Eklentisi",
        "Name[uk]": "Додаток імпортування IIF до Skrooge",
        "Name[x-test]": "xxSkrooge import IIF pluginxx",
        "Version": "1.0",
        "Website": "https://skrooge.org/"
    },
    "X-Krunner-ID": "Skrooge import IIF plugin"
}
