{
    "KPlugin": {
        "Authors": [
            {
                "Email": "stephane@mankowski.fr",
                "Name": "Stephane MANKOWSKI,miraks",
                "Name[ca@valencia]": "Stephane MANKOWSKI,miraks",
                "Name[ca]": "Stephane MANKOWSKI,miraks",
                "Name[en_GB]": "Stephane MANKOWSKI,miraks",
                "Name[eo]": "Stephane MANKOWSKI,miraks",
                "Name[es]": "Stephane MANKOWSKI,miraks",
                "Name[fi]": "Stephane MANKOWSKI,miraks",
                "Name[fr]": "Stephane MANKOWSKI, miraks",
                "Name[gl]": "Stephane MANKOWSKI, miraks",
                "Name[ia]": "Stephane MANKOWSKI,miraks",
                "Name[it]": "Stephane MANKOWSKI,miraks",
                "Name[ka]": "Stephane MANKOWSKI,miraks",
                "Name[nl]": "Stephane MANKOWSKI,miraks",
                "Name[pl]": "Stephane MANKOWSKI,miraks",
                "Name[pt]": "Stephane MANKOWSKI,miraks",
                "Name[ru]": "Stephane MANKOWSKI,miraks",
                "Name[sl]": "Stephane MANKOWSKI,miraks",
                "Name[sv]": "Stephane MANKOWSKI,miraks",
                "Name[tr]": "Stephane MANKOWSKI, miraks",
                "Name[uk]": "Stephane MANKOWSKI,miraks",
                "Name[x-test]": "xxStephane MANKOWSKI,miraksxx"
            }
        ],
        "Category": "Plugins",
        "Description": "A Skrooge plugin to import QIF files",
        "Description[ca@valencia]": "Un connector de Skrooge per a importar fitxers QIF",
        "Description[ca]": "Un connector de l'Skrooge per a importar fitxers QIF",
        "Description[cs]": "Modul Skrooge pro import souborů QIF",
        "Description[en_GB]": "A Skrooge plugin to import QIF files",
        "Description[eo]": "Skrooge kromaĵo por importi QIF-dosierojn",
        "Description[es]": "Complemento de Skrooge para importar archivos QIF",
        "Description[fi]": "Skroogen QIF-tiedostojen tuontiliitännäinen",
        "Description[fr]": "Un module externe de Skrooge pour l'importation de fichiers « QIF »",
        "Description[gl]": "Un complemento de Skrooge para importar ficheiros QIF.",
        "Description[it]": "Un'estensione di Skrooge per importare i file QIF",
        "Description[ka]": "Skrooge -ის დამატება QIF -ის შემოსატანად",
        "Description[nl]": "Een Skrooge-plugin voor het importeren van QIF-bestanden",
        "Description[pl]": "Wtyczka Skrooge do importu plików QIF",
        "Description[pt]": "Um 'plugin' do Skrooge para importar ficheiros QIF",
        "Description[ru]": "Модуль импорта файлов QIF",
        "Description[sl]": "Vtičnik Skrooge za uvažanje datotek QIF",
        "Description[sv]": "Ett insticksprogram till Skrooge för att importera QIF-filer",
        "Description[tr]": "QIF dosyaları içe aktarmak için Varyemez eklentisi",
        "Description[uk]": "Додаток до Skrooge для імпортування даних з файлів QIF",
        "Description[x-test]": "xxA Skrooge plugin to import QIF filesxx",
        "EnabledByDefault": true,
        "Icon": "skrooge",
        "License": "GPL",
        "Name": "Skrooge import QIF plugin",
        "Name[bs]": "Skrooge dodatak za QIF uvoz",
        "Name[ca@valencia]": "Connector d'importació de QIF de Skrooge",
        "Name[ca]": "Connector d'importació de QIF de l'Skrooge",
        "Name[cs]": "Modul Skrooge pro import QIF",
        "Name[da]": "Plugin til import af QIF til Skrooge",
        "Name[de]": "Skrooge-QIF-Importmodul",
        "Name[el]": "Skrooge import QIF plugin",
        "Name[en_GB]": "Skrooge import QIF plugin",
        "Name[eo]": "Skrooge import QIF-kromaĵo",
        "Name[es]": "Complemento de importación QIF en Skrooge",
        "Name[et]": "Skrooge QIF impordi plugin",
        "Name[fi]": "Skroogen QIF-tuontiliitännäinen",
        "Name[fr]": "Moteur externe de Skrooge pour l'importation « QIF »",
        "Name[gl]": "Complemento de importación de QIF a Skrooge",
        "Name[hu]": "Skrooge QIF importáló bővítmény",
        "Name[it]": "Estensione di Skrooge per l'importazione QIF",
        "Name[ka]": "Skrooge -ის დამატება QIF -ის შემოსატანად",
        "Name[lt]": "Skrooge QIF importavimo papildinys",
        "Name[nb]": "Skrooge-modul for QIF-import",
        "Name[nl]": "Plugin van Skrooge voor importeren van QIF",
        "Name[pl]": "Wtyczka importu QIF dla Skrooge",
        "Name[pt]": "'Plugin' de importação de QIF do Skrooge",
        "Name[pt_BR]": "Plugin de importação de QIF para o Skrooge",
        "Name[ru]": "Модуль импорта файлов QIF",
        "Name[sk]": "Skrooge plugin QIF import",
        "Name[sl]": "Vtičnik Skrooge uvoza QIT",
        "Name[sv]": "Skrooge QIF-importinsticksprogram",
        "Name[tr]": "Varyemez QIF İçe Aktarma Eklentisi",
        "Name[uk]": "Додаток імпортування QIF до Skrooge",
        "Name[x-test]": "xxSkrooge import QIF pluginxx",
        "Name[zh_TW]": "Skrooge 匯入 QIF 外掛程式",
        "Version": "1.0",
        "Website": "https://skrooge.org/"
    },
    "X-Krunner-ID": "Skrooge import QIF plugin"
}
